[{
    "name": "Apple",
    "price":100,
    "image": "images/apple.jpg",
    "article": 32132131,
    "color": "red"
},
{
    "name": "Banana",
    "price":50,
    "image": "images/banana.jpg",
    "article": 1213213,
    "color": "red"
},
{
    "name": "Orange",
    "price":30,
    "image": "images/orange.jpg",
    "article": 1212,
    "color": "red"
},
{
    "name": "pineapple",
    "price":12,
    "image": "images/PINEAPPLE.webp",
    "article": 4512312,
    "color": "red"
},
{
    "name": "Strawberry",
    "price":100,
    "image": "images/strawberry.webp",
    "article": 2312312312,
    "color": "red"
},
{
    "name": "Watermelon",
    "price":100,
    "image": "images/Watermelon.jpg",
    "article": 2312312312,
    "color": "red"
},
{
    "name": "Mango",
    "price":100,
    "image": "images/mango.jpg",
    "article": 2312312312,
    "color": "red"
},
{
    "name": "Potato",
    "price":10,
    "image": "images/potato.jpg",
    "article": 2312312312,
    "color": "red"
},
{
    "name": "Peach",
    "price":20,
    "image": "images/peach.jpg",
    "article": 2312312312,
    "color": "red"
},
{
    "name": "Kivi",
    "price":34,
    "image": "images/kivi.jpg",
    "article": 2312312312,
    "color": "red"
}]
 